{
  "docs": [
    {
      "address": {
        "home_number": 203,
        "street": "South Gate Cir",
        "city": "Fairfield",
        "state": "Iowa",
        "zipcode": 52556
      },
      "description": {
        "typeOfBuilding": "",
        "square": 2403,
        "prices": 169000,
        "bed": 2,
        "bath": 2,
        "propertyDetail": "WELL-KEPT PRIVATE LOCATION SOUTHGATE CONDO. 1, 132 sq. ft. Big living room/dining combo, open plan to kitchen. Two bedrooms, one with ensuite shower with built-in seat, toilet, basin, medicine cupboard, large walk-in closet. 2nd full bathroom with washer/ dryer. Single car garage; extra parking for two more cars not obstructing garage. Cute patio looking out towards the communal gazebo. These units have sold quickly especially in the recent market. Covenants apply. HOA fees $127.50 a month.",
        "garages": 1,
        "yearBuilt": 1999
      },
      "publisher": {
        "userId": "agent1",
        "fullName": "Agent 1",
        "email": "agent1@gmail.com",
        "appointments": [
          {
            "userId": "user1",
            "fullName": "Le Thanh Trung",
            "phoneNUmber": 73727876712,
            "email": "lethanhtrung@gmail.com",
            "date": "2000-01-01T06:00:00.000Z"
          },
          {
            "userId": "user2",
            "fullName": "Win Win",
            "phoneNUmber": 66627876712,
            "email": "winwin@gmail.com",
            "date": "2000-01-01T06:00:00.000Z"
          },
          {
            "userId": "user3",
            "fullName": "Sonyta",
            "phoneNUmber": 6432831728,
            "email": "sonyta@gmail.com",
            "date": "2000-01-01T06:00:00.000Z"
          }
        ]
      },
      "_id": "6351a804c76fc944d6977a19",
      "images": [],
      "interestingUserIds": [
        "user2",
        "user3"
      ]
    },
    {
      "address": {
        "home_number": 602,
        "street": "W Broadway Ave",
        "city": "Fairfield",
        "state": "Iowa",
        "zipcode": 52556
      },
      "description": {
        "typeOfBuilding": "",
        "square": 1976,
        "prices": 209000,
        "bed": 2,
        "bath": 2,
        "propertyDetail": "This Multi-family Apartment building has 4 units. Located just a few blocks from the center of town and very close to grocery stores, restaurants, and schools. This building has an $18, 087 annual net income after expenses. Tenants rent includes utilities of Fairfield Water, Alliant Energy, & Windstream Internet. Tenants need 24 hours notice to show.",
        "garages": 1,
        "yearBuilt": 1880
      },
      "publisher": {
        "userId": "agent2",
        "fullName": "Agent 2",
        "email": "agent2@gmail.com",
        "appointments": [
          {
            "userId": "user1",
            "fullName": "Le Thanh Trung",
            "phoneNUmber": 73727876712,
            "email": "lethanhtrung@gmail.com",
            "date": "2000-01-01T06:00:00.000Z"
          },
          {
            "userId": "user2",
            "fullName": "Win Win",
            "phoneNUmber": 66627876712,
            "email": "winwin@gmail.com",
            "date": "2000-01-01T06:00:00.000Z"
          },
          {
            "userId": "user3",
            "fullName": "Sonyta",
            "phoneNUmber": 6432831728,
            "email": "sonyta@gmail.com",
            "date": "2000-01-01T06:00:00.000Z"
          }
        ]
      },
      "_id": "6351a804c76fc944d6977a1a",
      "images": [],
      "interestingUserIds": []
    }
  ],
  "totalDocs": 8,
  "limit": 2,
  "totalPages": 4,
  "page": 2,
  "pagingCounter": 3,
  "hasPrevPage": true,
  "hasNextPage": true,
  "prevPage": 1,
  "nextPage": 3
}